Bibi in Texas
…
#selecionando as colunas de interesse e filtrando o período que eu vou analisar
lastfm_clean <- lastfm |> 
  select(date, Artist, album, track) |>  
  filter(date > "2022-09-06" & date < "2023-01-01")
lastfm_clean
## # A tibble: 2,288 × 4
##    date       Artist           album            track           
##    <date>     <chr>            <chr>            <chr>           
##  1 2022-12-31 Dua Lipa         Future Nostalgia Physical        
##  2 2022-12-31 DUDA BEAT        Chega            Chega           
##  3 2022-12-31 Thiago Pantaleão Te Deixo Crazy   Te Deixo Crazy  
##  4 2022-12-31 Lia Clark        Clark Boom       Chifrudo        
##  5 2022-12-31 Luísa Sonza      Pandora          Garupa          
##  6 2022-12-31 Mulú             Ribuliço         Ribuliço        
##  7 2022-12-31 Dua Lipa         Future Nostalgia Hallucinate     
##  8 2022-12-31 Gloria Groove    LADY LESTE       PISANDO FOFO    
##  9 2022-12-31 LUDMILLA         Rainha da Favela Rainha da Favela
## 10 2022-12-31 CHAMELEO         ECDISE           TOKYO           
## # ℹ 2,278 more rows
…
