Rap é compromisso. E dados
…
library(tidyverse)
df1 <- readRDS("data/letras-filtradas-com-idioma.RDS")
df2 <- readRDS("data/tidy_letras.RDS")
#df3 <- readRDS("data/tidy_bigramas_rap.RDS")

library(stopwords)
library(tm)
library(tidytext)
library(wordcloud2)

df1 |> 
  group_by(idioma) |> 
  summarise(qtd=n()) |> 
  arrange(desc(qtd))
## # A tibble: 41 × 2
##    idioma   qtd
##    <chr>  <int>
##  1 eng    17583
##  2 por     6351
##  3 sco      879
##  4 spa      296
##  5 cat       64
##  6 fra       28
##  7 ita       24
##  8 afr       11
##  9 bcl       11
## 10 glg       11
## # ℹ 31 more rows

pt <- df1 |> filter(idioma=="por")

pt |> group_by(nome_artista) |>
  summarise(qtd=n()) |> 
  arrange(desc(qtd))
## # A tibble: 245 × 2
##    nome_artista         qtd
##    <chr>              <int>
##  1 Sampa Crew           194
##  2 Charlie Brown Jr     189
##  3 Bonde da Stronda     175
##  4 Emicida              172
##  5 Projota              167
##  6 Tribo da Periferia   160
##  7 Pregador Luo         152
##  8 Marcelo D2           141
##  9 3030                 133
## 10 Gabriel O Pensador   127
## # ℹ 235 more rows

df_artistas <- pt |> select(nome_artista)  |> unique()

pt |> filter(nome_artista=="Emicida")
## # A tibble: 172 × 7
## # Rowwise: 
##    url_artista    nome_artista url_musica nome_musica letra_musica estilo_musica
##    <glue>         <chr>        <glue>     <chr>       <chr>        <list>       
##  1 https://www.v… Emicida      https://w… (A)Tensão!  "[Verso 1: … <chr [2]>    
##  2 https://www.v… Emicida      https://w… 1989        "Lá tinha á… <chr [2]>    
##  3 https://www.v… Emicida      https://w… 8           "Tipo centr… <chr [2]>    
##  4 https://www.v… Emicida      https://w… 9 Circulos  "Parece cra… <chr [2]>    
##  5 https://www.v… Emicida      https://w… 9nha (Part… "Eu tinha 1… <chr [2]>    
##  6 https://www.v… Emicida      https://w… A Cada Ven… "Refrão:\nH… <chr [2]>    
##  7 https://www.v… Emicida      https://w… A Chapa é … "[Ponte: Ra… <chr [2]>    
##  8 https://www.v… Emicida      https://w… A Cobrar    "Não tô na … <chr [2]>    
##  9 https://www.v… Emicida      https://w… A Ordem Na… "A merendei… <chr [2]>    
## 10 https://www.v… Emicida      https://w… A Rua É Nó… "Bruce slim… <chr [2]>    
## # ℹ 162 more rows
## # ℹ 1 more variable: idioma <chr>
…
